{
    "name": "test-network-dealer",
    "version": "1.0.0",
    "client": {
        "organization": "Dealer",
        "connection": {
            "timeout": {
                "peer": {
                    "endorser": "300"
                }
            }
        }
    },
    "organizations": {
        "dealer": {
            "mspid": "DealerMSP",
            "peers": [
                "peer0.dealer.auto.com"
            ],
            "certificateAuthorities": [
                "ca.dealer.auto.com"
            ]
        }
    },
    "peers": {
        "peer0.dealer.auto.com": {
            "url": "grpcs://localhost:9051",
            "tlsCACerts": {
                "pem": "-----BEGIN CERTIFICATE-----\nMIIB6TCCAY+gAwIBAgIUV6i3TlNdh1WcgD9xDS5qG46frBAwCgYIKoZIzj0EAwIw\nUTEOMAwGA1UEBhMFSW5kaWExDzANBgNVBAcTBktlcmFsYTERMA8GA1UEChMIYXV0\nby5jb20xGzAZBgNVBAMTEmNhLmRlYWxlci5hdXRvLmNvbTAeFw0yMTExMTAyMjA4\nMDBaFw0zNjExMDYyMjA4MDBaMFExDjAMBgNVBAYTBUluZGlhMQ8wDQYDVQQHEwZL\nZXJhbGExETAPBgNVBAoTCGF1dG8uY29tMRswGQYDVQQDExJjYS5kZWFsZXIuYXV0\nby5jb20wWTATBgcqhkjOPQIBBggqhkjOPQMBBwNCAAQOc3v1j9lpGmOf3WA5bkQU\nCSRvNCd/J76CEEPUP/q6aUaeSBfX33WBPKMuLQs8T5reu7CxC+LVpx7m5lYl8sG1\no0UwQzAOBgNVHQ8BAf8EBAMCAQYwEgYDVR0TAQH/BAgwBgEB/wIBATAdBgNVHQ4E\nFgQUPHa4pInOTHDdWIkcNorXbnXnQYMwCgYIKoZIzj0EAwIDSAAwRQIhAP/lUBDY\nj7WoMluYRuV7CP/oQUB8McWO74bIJXWgFcgdAiA4hiC7wECBqQO4HhOOkazu8SQb\n3TnYJ9eOI4h1xvpYxQ==\n-----END CERTIFICATE-----\n"
            },
            "grpcOptions": {
                "ssl-target-name-override": "peer0.dealer.auto.com",
                "hostnameOverride": "peer0.dealer.auto.com"
            }
        }
    },
    "certificateAuthorities": {
        "ca.dealer.auto.com": {
            "url": "https://localhost:8054",
            "caName": "ca-dealer",
            "tlsCACerts": {
                "pem": ["-----BEGIN CERTIFICATE-----\nMIIB6TCCAY+gAwIBAgIUV6i3TlNdh1WcgD9xDS5qG46frBAwCgYIKoZIzj0EAwIw\nUTEOMAwGA1UEBhMFSW5kaWExDzANBgNVBAcTBktlcmFsYTERMA8GA1UEChMIYXV0\nby5jb20xGzAZBgNVBAMTEmNhLmRlYWxlci5hdXRvLmNvbTAeFw0yMTExMTAyMjA4\nMDBaFw0zNjExMDYyMjA4MDBaMFExDjAMBgNVBAYTBUluZGlhMQ8wDQYDVQQHEwZL\nZXJhbGExETAPBgNVBAoTCGF1dG8uY29tMRswGQYDVQQDExJjYS5kZWFsZXIuYXV0\nby5jb20wWTATBgcqhkjOPQIBBggqhkjOPQMBBwNCAAQOc3v1j9lpGmOf3WA5bkQU\nCSRvNCd/J76CEEPUP/q6aUaeSBfX33WBPKMuLQs8T5reu7CxC+LVpx7m5lYl8sG1\no0UwQzAOBgNVHQ8BAf8EBAMCAQYwEgYDVR0TAQH/BAgwBgEB/wIBATAdBgNVHQ4E\nFgQUPHa4pInOTHDdWIkcNorXbnXnQYMwCgYIKoZIzj0EAwIDSAAwRQIhAP/lUBDY\nj7WoMluYRuV7CP/oQUB8McWO74bIJXWgFcgdAiA4hiC7wECBqQO4HhOOkazu8SQb\n3TnYJ9eOI4h1xvpYxQ==\n-----END CERTIFICATE-----\n"]
            },
            "httpOptions": {
                "verify": false
            }
        }
    }
}
